SVI and health outcome • findSVI
…
phl_zcta_2020_geo_svi <- get_svi(2020,
  data = phl_zcta_data_geo_2020) %>%
  select(GEOID, contains("RPL_theme"))

phl_zcta_2020_geo_svi

#> Simple feature collection with 48 features and 6 fields
#> Geometry type: MULTIPOLYGON
#> Dimension:     XY
#> Bounding box:  xmin: -75.28027 ymin: 39.84987 xmax: -74.95578 ymax: 40.13799
#> Geodetic CRS:  NAD83
#> # A tibble: 48 × 7
#>    GEOID RPL_theme1 RPL_theme2 RPL_theme3 RPL_theme4 RPL_themes
#>    <chr>      <dbl>      <dbl>      <dbl>      <dbl>      <dbl>
#>  1 19102     0.0444     0.0222     0.0889      0.956     0.178 
#>  2 19103     0.0222     0.222      0.178       0.933     0.267 
#>  3 19104     0.689      0.2        0.556       0.978     0.689 
#>  4 19106     0          0.111      0.0444      0.711     0.0444
#>  5 19107     0.333      0.0667     0.4         1         0.378 
#>  6 19109    NA         NA         NA          NA        NA     
#>  7 19111     0.578      0.867      0.511       0.578     0.711 
#>  8 19112    NA         NA         NA          NA        NA     
#>  9 19114     0.178      0.422      0.156       0.111     0.2   
#> 10 19115     0.378      0.822      0.289       0.822     0.533 
#> # ℹ 38 more rows
#> # ℹ 1 more variable: geometry <MULTIPOLYGON [°]>
…
